{
   "index_patterns": [
      "gprd-static-objects-cache-*"
   ],
   "settings": {
      "index": {
         "lifecycle": {
            "name": "gitlab-static-objects-cache-ilm-policy"
         }
      },
      "number_of_shards": 2
   }
}
